<svg xmlns="http://www.w3.org/2000/svg">
  <path
    fill-rule="evenodd"
    clip-rule="evenodd"
    d="M34.6504 0.798096V22.1177H39.7075V14.5581L44.8981 22.1177H51.4502L44.2435 13.5994L50.7318 5.85407H44.2307H44.1634L39.7075 12.6V0.798096H34.6504Z"
  />
  <path
    fill-rule="evenodd"
    clip-rule="evenodd"
    d="M26.4322 5.48877C20.7773 5.48877 18.2168 10.0445 18.2168 14.1684C18.2168 19.2557 21.3785 22.45 26.8976 22.45C29.0925 22.45 31.1214 22.118 32.7858 21.4518L32.1184 18.0277C30.7569 18.4595 29.3583 18.6928 27.6288 18.6928C25.268 18.6928 23.2078 17.6946 23.0406 15.5996H33.517C33.5832 15.2339 33.683 14.4679 33.683 13.6032C33.683 9.57789 31.6878 5.48877 26.4322 5.48877ZM23.007 12.1395C23.1393 10.778 24.004 8.84781 26.1315 8.84781C28.4611 8.84781 28.9938 10.9092 28.9938 12.1395H23.007Z"
  />
  <path
    fill-rule="evenodd"
    clip-rule="evenodd"
    d="M9.15621 5.48869C7.89686 5.48869 6.74429 5.68833 5.7136 6.05627V0.79834H0.476562V14.5398C0.675041 19.5261 4.2697 22.4835 8.89041 22.4835C13.2476 22.4835 17.4714 19.7571 17.4714 13.8027C17.4714 8.91389 14.146 5.48869 9.15621 5.48869ZM9.02275 18.8587C7.00663 18.8587 5.85986 17.0341 5.71362 14.5201V13.4383C5.84129 11.2191 6.77449 9.07992 9.02275 9.07992C11.3174 9.07992 12.2495 11.5417 12.2495 13.9688C12.2495 16.896 10.9855 18.8587 9.02275 18.8587Z" 
  />
  <path
    fill-rule="evenodd"
    clip-rule="evenodd"
    d="M57.9152 5.48877C52.6932 5.48877 49.2344 8.84781 49.2344 14.1023C49.2344 19.3579 52.8929 22.4836 57.6494 22.4836C62.0055 22.4836 66.2304 19.7571 66.2304 13.8028C66.2304 8.91397 62.9062 5.48877 57.9152 5.48877ZM57.7829 18.8588C55.6205 18.8588 54.4575 16.7637 54.4575 13.9688C54.4575 11.5743 55.3547 9.07995 57.7829 9.07995C60.0764 9.07995 61.0084 11.5418 61.0084 13.9688C61.0084 16.896 59.7444 18.8588 57.7829 18.8588Z"
  />
  <path
    fill-rule="evenodd"
    clip-rule="evenodd"
    d="M0.476562 33.1606V38.2664L64.3738 29.285V24.1803L0.476562 33.1606Z"
  />
</svg>
