<svg width="19" height="18" viewBox="0 0 19 18" fill="none" xmlns="http://www.w3.org/2000/svg">
<path d="M17.8301 4.8324L9.41811 4.8324L12.8121 1.45462L12.3412 0.999924L8.18392 5.15719L12.3412 9.31445L12.8121 8.85975L9.41811 5.48197L17.8301 5.48197V4.8324Z" fill="white" stroke="#1E2E3F" stroke-width="0.75"/>
<path d="M0.441406 12.8395H8.85337L5.45935 16.2173L5.93029 16.672L10.0876 12.5147L5.93029 8.35742L5.45935 8.81212L8.85337 12.1899H0.441406V12.8395Z" fill="white" stroke="#1E2E3F" stroke-width="0.75"/>
</svg>
