<svg width="45" height="46" viewBox="0 0 45 46" fill="none" xmlns="http://www.w3.org/2000/svg">
<path fill-rule="evenodd" clip-rule="evenodd" d="M22.5 45.082C34.9264 45.082 45 35.0084 45 22.582C45 10.1556 34.9264 0.0820312 22.5 0.0820312C10.0736 0.0820312 0 10.1556 0 22.582C0 35.0084 10.0736 45.082 22.5 45.082Z" fill="white" fill-opacity="0.16"/>
<path fill-rule="evenodd" clip-rule="evenodd" d="M21.3594 29.832V23.5703H19.2539V21.082H21.3594V19.1133C21.3594 18.0742 21.651 17.2676 22.2344 16.6934C22.8177 16.1191 23.5924 15.832 24.5586 15.832C25.3424 15.832 25.9805 15.8685 26.4726 15.9414V18.1562H25.1601C24.668 18.1562 24.3307 18.2656 24.1484 18.4844C24.0026 18.6667 23.9297 18.9583 23.9297 19.3594V21.082H26.2539L25.9258 23.5703H23.9297V29.832H21.3594Z" fill="white"/>
</svg>
