<svg
  width="16"
  height="9"
  viewBox="0 0 16 9"
  xmlns="http://www.w3.org/2000/svg"
>
<path
  d="M0.948 9V0.0839996H6.624V1.476H2.628V3.744H6.372V5.088H2.628V7.62H6.624V9H0.948ZM13.5994 9L10.7434 3.708C10.6314 3.5 10.5154 3.284 10.3954 3.06C10.2834 2.828 10.1754 2.6 10.0714 2.376H10.0474C10.0634 2.632 10.0754 2.896 10.0834 3.168C10.0914 3.432 10.0954 3.7 10.0954 3.972V9H8.55942V0.0839996H10.5034L13.3474 5.268C13.4594 5.476 13.5754 5.7 13.6954 5.94C13.8234 6.18 13.9354 6.408 14.0314 6.624H14.0554C14.0394 6.36 14.0274 6.08 14.0194 5.784C14.0114 5.488 14.0074 5.204 14.0074 4.932V0.0839996H15.5554V9H13.5994Z"
/>
</svg>
