<svg width="17" height="16" viewBox="0 0 17 16" fill="none" xmlns="http://www.w3.org/2000/svg">
<path fill-rule="evenodd" clip-rule="evenodd" d="M12.1508 2.01743C14.6324 4.50438 14.8512 8.45819 12.6591 11.2037L16.3844 14.9139L15.2983 16L11.5838 12.279C8.68775 14.5952 4.47834 14.2058 2.0564 11.3975C-0.365547 8.58927 -0.13234 4.36832 2.58423 1.84398C5.3008 -0.680367 9.52749 -0.60373 12.1508 2.01743ZM3.47633 10.6937C5.57444 12.7923 8.97642 12.7931 11.0755 10.6954C13.1712 8.59445 13.1712 5.19367 11.0755 3.09268C8.97642 0.995068 5.57444 0.995869 3.47633 3.09447C1.37822 5.19307 1.37822 8.59505 3.47633 10.6937Z" fill="#1E2E3F"/>
</svg>
